

 NAS Parallel Benchmarks 3.4 -- IS Benchmark

 Size:  34359738368  (class E)
 Iterations:   10
 Number of processes:     64
ERROR: memoy allocation failed
ERROR: memoy allocation failed
ERROR: memoy allocation failed
ERROR: memoy allocation failed
ERROR: memoy allocation failed
ERROR: memoy allocation failed
ERROR: memoy allocation failed
ERROR: memoy allocation failed
ERROR: memoy allocation failed
ERROR: memoy allocation failed
ERROR: memoy allocation failed
ERROR: memoy allocation failed
ERROR: memoy allocation failed
ERROR: memoy allocation failed
ERROR: memoy allocation failed
ERROR: memoy allocation failed
ERROR: memoy allocation failed
ERROR: memoy allocation failed
ERROR: memoy allocation failed
ERROR: memoy allocation failed
ERROR: memoy allocation failed
ERROR: memoy allocation failed
ERROR: memoy allocation failed
ERROR: memoy allocation failed
ERROR: memoy allocation failed
ERROR: memoy allocation failed
ERROR: memoy allocation failed
ERROR: memoy allocation failed
ERROR: memoy allocation failed
ERROR: memoy allocation failed
ERROR: memoy allocation failed
ERROR: memoy allocation failed
ERROR: memoy allocation failed
ERROR: memoy allocation failed
ERROR: memoy allocation failed
ERROR: memoy allocation failed
ERROR: memoy allocation failed
ERROR: memoy allocation failed
ERROR: memoy allocation failed
ERROR: memoy allocation failed
